[gd_resource type="StandardMaterial3D" load_steps=5 format=3]

[ext_resource type="Texture2D" path="res://src/stadium/grass001/Grass_001_COLOR.jpg" id="1_kkj1n"]
[ext_resource type="Texture2D" path="res://src/stadium/grass001/Grass_001_OCC.jpg" id="2_gcwms"]
[ext_resource type="Texture2D" path="res://src/stadium/grass001/Grass_001_NORM.jpg" id="3_xhvjh"]
[ext_resource type="Texture2D" path="res://src/stadium/grass001/Grass_001_ROUGH.jpg" id="4_ojrp2"]

[resource]
albedo_texture = ExtResource("1_kkj1n")
metallic_specular = 0.2
roughness_texture = ExtResource("4_ojrp2")
normal_enabled = true
normal_texture = ExtResource("3_xhvjh")
anisotropy = -1.0
ao_enabled = true
ao_texture = ExtResource("2_gcwms")
uv1_scale = Vector3(5, 5, 5)
point_size = 128.0
